{
  "images" : [
    {
      "idiom" : "universal",
      "scale" : "1x",
      "filename" : "Back-To-Petlox-bgbox.png"
    },
    {
      "idiom" : "universal",
      "scale" : "2x",
      "filename" : "Back-To-Petlox-bgbox@2x.png"
    },
    {
      "idiom" : "universal",
      "scale" : "3x",
      "filename" : "Back-To-Petlox-bgbox@3x.png"
    }
  ],
  "info" : {
    "version" : 1,
    "author" : "xcode"
  }
}